22222222222222222222222222222222
22222222222222222222222222222222
2X2222222222222222222222222AAA22
2r2222222222222222222222222AAA22
2r;;:i222222222222222222222AAA22
2;;;;sr2222222222222222222AAXAA2
2Aisis;2222222;;;;irrrs222AAXAA2
22:XXi;22222;;i;;;iiiirrrAAXXAA2
222sr::222AiriiiiiiiiiirrrsXXXA2
222A:::22siirirriiiiiiirrrrsXXA2
2222::;22rrirrrrriiiiiirrrriXXX2
22222:22srrrrrrrrrriiirrrrrrisX2
22222i2AXrrrrrrrrrrirrrrrrrrrrX2
22222i2Xrrrrrrsrrrrrrrrrrrrrr;s2
22222;2Xssssssrrrsrrrrrrrrrrris2
22222i2sssssXssrsssrssrrrrrssrrA
222AA22sssssXrsXsssssssssssssrrA
222A;i;AXssXsAXXXssssssssssssrr2
2222222XssXAAXXXXXsssssssssssrs2
2222222ssssXAXXAAssssssssssssrX2
2222222XssXXAsAXXXsssssssssssrA2
2222222sssXXXXXXXsXXsssssssssrA2
22222222XssAAXAAXsXsssssssssXX22
22222222sssXXXAXAssssssssssXXA22
222222222sssXXXAssssssssssXX2222
2222222222sssXsssssssssXXXX22222
22222222222sssssssssXXXXXA222222
2222222222222sssXXXXXXAA22222222
2222222222222222AAAA222222222222
22222222222222222222222222222222
22222222222222222222222222222222
22222222222222222222222222222222
