rssssssssssXXXXXsXXXXXXXXXXXXXXX
ssssssssssXXXXXXXXXXXXXXXXXXXXXX
ssssssssssXsXXXXXXXX .XXXXXXXXXX
ssssssssssXXXXXXXX..:;XXXXXXXXAX
ssssssssssXXXXXXX.. .XXXXXXXXAAX
sssssssssXsXXXXXX..,;XXXXXXXXXXX
sssssssssXs.. :;X:. XXXXXXXXXXXX
sssssssssX;;,:,..:,,XXXXXXXXXXAX
XXXssssss.    ,,i.;:;.sXXXXXXXXX
sXXXsssss ,....:  .. ; XXXXXXXXX
sXXXXssss:..,.:,:.,:.:.XXXXXXXXX
ssXXXssss,:, .  i :. ;.XXXXXXXXA
sssX:..,..:.  .. :;:r.,XXXXXXXXX
sss.: :  .., ,.  ... .i.,iXXXXXX
ss:   . . ,,.,  ,. ,;  ..,:AXAXX
ss:  ... .,. ,,,: ::: ::...:XAXX
ss...:...:.. .. ;  ,.  :; ;,:AXX
sX.;.  ;.::     ..., ..    ;:rXX
ss:..,. s.:  . ., XXXX.    .,:XX
ss,.. ., .   :, :,:XXAA. ::,,;XX
ss: ,.  . .  ,,,., .:r ,,:;,,:sX
sss:,  . .;..:s .  .,....; ,.rXX
ssss.,,  :: ..: i.;, ;., ..:,XXX
ssssX,..,. :.:;; , ..   .. ,:XXX
sssss.;sr,,.i :.;:   ;i  .,:sXXX
sssssX ,XsX.;r...i ;;;, i,:XXXXX
ssssss.  ,:..: .s; i. .,:sXXXXXX
sssssss ,.,.   :XXXsXXXXXXXXXXXA
ssssXsss.,  :i:sXXXXXXsXXXXXXXXX
sssssssss:,  ;rsXXXXXXXXXXXXAXXX
sssssssXXXXsssssXXXsXXXXXXXXXAXX
ssssssXsXXsssssXXXsXXXXXXXXXXAAX
